[
    {
        "fields": {
            "code": "d_acgal = acgal.well8x35x20(\r\n    s_runid = \"es-8X005\",\r\n    s_gal_txt = \"../supersetfile/gal20151215LI8X005.gal\",\r\n    ld_sourceplate_acjson = [\r\n        d_es1?,\r\n        d_es2?,\r\n        d_es3?,\r\n    ],\r\n    s_opath=None,\r\n)",
            "superset_file": "upload/supersetfile/gal20151215LI8X005.gal",
            "superset_file_overwrite": false
        },
        "model": "app4superset.supersetfile",
        "pk": "gal20151215li8x005gal"
    },
    {
        "fields": {
            "code": "d_acgal = acgal.well8x35x20(\r\n    s_runid = \"es-8X006\",\r\n    s_gal_txt = \"../supersetfile/gal20160419LI8X006.gal\",\r\n    ld_sourceplate_acjson = [\r\n        d_es1?,\r\n        d_es2?,\r\n        d_es3?,\r\n        d_es4?,\r\n    ],\r\n    s_opath=None,\r\n)",
            "superset_file": "upload/supersetfile/gal20160419LI8X006.gal",
            "superset_file_overwrite": false
        },
        "model": "app4superset.supersetfile",
        "pk": "gal20160419li8x006gal"
    },
    {
        "fields": {
            "code": "d_acgal = acgal.well8x35x20(\r\n    s_runid = \"es-8X008\",\r\n    s_gal_txt = \"../supersetfile/gal20161219LI8X008.gal\",\r\n    ld_sourceplate_acjson = [\r\n        d_es1?,\r\n        d_es2?,\r\n        d_es3?,\r\n    ],\r\n    s_opath=None,\r\n)",
            "superset_file": "upload/supersetfile/gal20161219LI8X008.gal",
            "superset_file_overwrite": false
        },
        "model": "app4superset.supersetfile",
        "pk": "gal20161219li8x008gal"
    }
]
