[
    {
        "fields": {
            "acjson_file": "upload/superset/annot_superset-es-8C002_ac.json",
            "acjson_file_overwrite": false,
            "acpipemodule": [
                "acpipe_aushon"
            ],
            "acpipemodule_display": "['acpipeaushon']",
            "annot_id": "es-8c002",
            "endpointsetset": [],
            "endpointsetset_display": "",
            "notes": "no block2pin mapping record available.\r\n'check superset file acjson file against set of set acjson' will through an Error that it not can find PBS_pubchemcid24978514 and COL1_go0005584. That is totally ok.",
            "perturbationsetset": [
                "es-1layout2v3",
                "es-2layout2v3",
                "es-3layout2v3",
                "esCol-1v2"
            ],
            "perturbationsetset_display": "['es-1layout2v3', 'es-2layout2v3', 'es-3layout2v3', 'escol-1v2']",
            "responsible": "Elmar__Bucher",
            "samplesetset": [],
            "samplesetset_display": "[]",
            "supersetfile": [
                "gal20151215li8x005gal"
            ],
            "supersetfile_display": "['gal20151215li8x005gal']",
            "supersetset": [],
            "supersetset_display": "[]"
        },
        "model": "app4superset.superset",
        "pk": "es-8C002"
    },
    {
        "fields": {
            "acjson_file": "upload/superset/annot_superset-es-8X005_ac.json",
            "acjson_file_overwrite": false,
            "acpipemodule": [
                "acpipe_aushon"
            ],
            "acpipemodule_display": "['acpipeaushon']",
            "annot_id": "es-8x005",
            "endpointsetset": [],
            "endpointsetset_display": "",
            "notes": "no block2pin mapping record available.\r\n'check superset file acjson file against set of set acjson' will through an Error that it not can find PBS_pubchemcid24978514 and COL1_go0005584. That is totally ok.",
            "perturbationsetset": [
                "es-1layout2v3",
                "es-2layout2v3",
                "es-3layout2v3",
                "esCol-1v2"
            ],
            "perturbationsetset_display": "['es-1layout2v3', 'es-2layout2v3', 'es-3layout2v3', 'escol-1v2']",
            "responsible": "Elmar__Bucher",
            "samplesetset": [],
            "samplesetset_display": "[]",
            "supersetfile": [
                "gal20151215li8x005gal"
            ],
            "supersetfile_display": "['gal20151215li8x005gal']",
            "supersetset": [],
            "supersetset_display": "[]"
        },
        "model": "app4superset.superset",
        "pk": "es-8X005"
    },
    {
        "fields": {
            "acjson_file": "upload/superset/annot_superset-es-8X006_ac.json",
            "acjson_file_overwrite": false,
            "acpipemodule": [
                "acpipe_aushon"
            ],
            "acpipemodule_display": "['acpipeaushon']",
            "annot_id": "es-8x006",
            "endpointsetset": [],
            "endpointsetset_display": "",
            "notes": "no block2pin mapping record available.\r\n'check superset file acjson file against set of set acjson' will through an Error that it not can find PBS_pubchemcid24978514 and COL1_go0005584. That is totally ok.",
            "perturbationsetset": [
                "es-1layout2v3",
                "es-2layout2v4",
                "es-3layout2v4",
                "es-4layout1v1",
                "esCol-1v2"
            ],
            "perturbationsetset_display": "['es-1layout2v3', 'es-2layout2v4', 'es-3layout2v4', 'es-4layout1v1', 'escol-1v2']",
            "responsible": "Elmar__Bucher",
            "samplesetset": [],
            "samplesetset_display": "[]",
            "supersetfile": [
                "gal20160419li8x006gal"
            ],
            "supersetfile_display": "['gal20160419li8x006gal']",
            "supersetset": [],
            "supersetset_display": "[]"
        },
        "model": "app4superset.superset",
        "pk": "es-8X006"
    },
    {
        "fields": {
            "acjson_file": "upload/superset/annot_superset-es-8X008_ac.json",
            "acjson_file_overwrite": false,
            "acpipemodule": [
                "acpipe_aushon"
            ],
            "acpipemodule_display": "['acpipeaushon']",
            "annot_id": "es-8x008",
            "endpointsetset": [],
            "endpointsetset_display": "",
            "notes": "no block2pin mapping record available.\r\n'check superset file acjson file against set of set acjson' will through an Error that it not can find PBS_pubchemcid24978514 and COL1_go0005584. That is totally ok.",
            "perturbationsetset": [
                "es-1layout3v6",
                "es-2layout3v6",
                "es-3layout2v6",
                "esCol-1v2"
            ],
            "perturbationsetset_display": "['es-1layout3v6', 'es-2layout3v6', 'es-3layout2v6', 'escol-1v2']",
            "responsible": "Elmar__Bucher",
            "samplesetset": [],
            "samplesetset_display": "[]",
            "supersetfile": [
                "gal20161219li8x008gal"
            ],
            "supersetfile_display": "['gal20161219li8x008gal']",
            "supersetset": [],
            "supersetset_display": "[]"
        },
        "model": "app4superset.superset",
        "pk": "es-8X008"
    }
]
