annot_id	proteinset	common_name	lincs_identifier	provider	provider_catalog_id	provider_batch_id	available	final_concentration_unit	time_unit
COL1_go0005584-CultrexOwn_344205001_31384J14	COL1_go0005584	COL1	COL1_Own	Cultrex_Own	3442-050-01	31384J14	False	ng_per_mL_uo0000275	hour_uo0000032
COL4_go0005587-SigmaAldrichOwn_C5533_044M410V	COL4_go0005587	COL4	COL4_Own	Sigma_Aldrich_Own	C5533	044M410V	True	ng_per_mL_uo0000275	hour_uo0000032
ITGA10B1_go0034680-RnDSystemsOwn_7827AB_DCSO0312101	ITGA10B1_go0034680	ITGA10B1	ITGA10B1_Own	RnD_Systems_Own	7827-AB	DCSO0312101	True	ng_per_mL_uo0000275	hour_uo0000032
ITGA2B1_go0034666-RnDSystemsOwn_5698A2_STF0413021	ITGA2B1_go0034666	ITGA2B1	ITGA2B1_Own	RnD_Systems_Own	5698-A2	STF0413021	True	ng_per_mL_uo0000275	hour_uo0000032
ITGA3B1_go0034667-RnDSystemsOwn_2840A3_NZL1913071	ITGA3B1_go0034667	ITGA3B1	ITGA3B1_Own	RnD_Systems_Own	2840-A3	NZL1913071	True	ng_per_mL_uo0000275	hour_uo0000032
ITGA4B1_go0034668-RnDSystemsOwn_5668A4_SNE1514081	ITGA4B1_go0034668	ITGA4B1	ITGA4B1_Own	RnD_Systems_Own	5668-A4	SNE1514081	True	ng_per_mL_uo0000275	hour_uo0000032
ITGA6B4_go0034676-RnDSystemsOwn_5497A6_SPF0113091	ITGA6B4_go0034676	ITGA6B4	ITGA6B4_Own	RnD_Systems_Own	5497-A6	SPF0113091	True	ng_per_mL_uo0000275	hour_uo0000032
ITGA9B1_go0034679-RnDSystemsOwn_5438A9_SMV1215011	ITGA9B1_go0034679	ITGA9B1	ITGA9B1_Own	RnD_Systems_Own	5438-A9	SMV1215011	True	ng_per_mL_uo0000275	hour_uo0000032
ITGAMB2_go0034688-RnDSystemsOwn_4047AM_PFO1014061	ITGAMB2_go0034688	ITGAMB2	ITGAMB2_Own	RnD_Systems_Own	4047-AM	PFO1014061	False	ng_per_mL_uo0000275	hour_uo0000032
ITGAMB2_go0034688-RnDSystemsOwn_4047AM_PFO1215061	ITGAMB2_go0034688	ITGAMB2	ITGAMB2_Own	RnD_Systems_Own	4047-AM	PFO1215061	True	ng_per_mL_uo0000275	hour_uo0000032
ITGAVB6_go0034685-RnDSystemsOwn_3817AV_PLU1314071	ITGAVB6_go0034685	ITGAVB6	ITGAVB6_Own	RnD_Systems_Own	3817-AV	PLU1314071	False	ng_per_mL_uo0000275	hour_uo0000032
ITGAVB6_go0034685-RnDSystemsOwn_3817AV_PLU1615071	ITGAVB6_go0034685	ITGAVB6	ITGAVB6_Own	RnD_Systems_Own	3817-AV	PLU1615071	True	ng_per_mL_uo0000275	hour_uo0000032
Laminin3B32_go0061801-abcamOwn_ab42326_GR2085491	Laminin3B32_go0061801	Laminin3B32	Laminin3B32_Own	abcam_Own	ab42326	GR208549-1	False	ng_per_mL_uo0000275	hour_uo0000032
PDGFAB_go1990265-RnDSystemsOwn_222AB_BX0914081	PDGFAB_go1990265	PDGFAB	PDGFAB_Own	RnD_Systems_Own	222-AB	BX0914081	False	ng_per_mL_uo0000275	hour_uo0000032
not_available-notavailable_notavailable_notavailable	not_available			not_available	not_available	not_available	True	ng_per_mL_uo0000275	hour_uo0000032
not_yet_specified-notyetspecified_notyetspecified_notyetspecified	not_yet_specified			not_yet_specified	not_yet_specified	not_yet_specified	True	ng_per_mL_uo0000275	hour_uo0000032
